Introduction to rGEO.data • rGEO.data
…
# A tibble: 23,210 x 8
  accession type    species  ftp    platform  data_type title description 
  <chr>     <chr>   <chr>    <chr>  <chr>     <chr>     <chr> <chr>       
1 GDS6177   DataSet Homo sa… ftp:/… Platform… "\tExpre… Acut… Analysis of…
2 GDS6100   DataSet Homo sa… ftp:/… Platform… "\tExpre… Micr… Analysis of…
3 GDS6083   DataSet Homo sa… ftp:/… Platform… "\tExpre… Chro… Analysis of…
4 GDS6082   DataSet Homo sa… ftp:/… Platform… "\tExpre… Send… Analysis of…
5 GDS6063   DataSet Homo sa… ftp:/… Platform… "\tExpre… Infl… Analysis of…
6 GDS6010   DataSet Homo sa… ftp:/… Platform… "\tExpre… Infl… Analysis of…
# ... with 2.32e+04 more rows

rGEO.data::platform

# A tibble: 4,882 x 9
  Accession Title        Technology   Taxonomy `Data Rows` `Samples Count`
  <chr>     <chr>        <chr>        <chr>    <chr>       <chr>          
1 GPL24205  Agilent-040… in situ oli… Homo sa… 30229       69             
2 GPL21790  nCounter Ge… other        Homo sa… 107         36             
3 GPL21791  nCounter GX… other        Homo sa… 213         36             
4 GPL23345  Lewis-Sigle… spotted DNA… Homo sa… 44544       127            
5 GPL23467  Agilent-082… in situ oli… Homo sa… 170419      0              
6 GPL23570  Qiagen Huma… RT-PCR       Homo sa… 1920        4              
# ... with 4,876 more rows, and 3 more variables: `Series Count` <chr>,
#   Contact <chr>, `Release Date` <chr>

rGEO.data::gpl_metas[1:2]

#> $GPL21790
#> $GPL21790$info
#> # A tibble: 2 x 2
#>   name  description
#>   <chr> <chr>      
#> 1 ID    ""         
#> 2 ORF   ""         
#> 
#> $GPL21790$sample
#> # A tibble: 20 x 2
#>   ID      ORF    
#>   <chr>   <chr>  
#> 1 ACTA2   ACTA2  
#> 2 ACTB    ACTB   
#> 3 AFP     AFP    
#> 4 B3GALT5 B3GALT5
#> 5 BMP2    BMP2   
#> 6 BMP4    BMP4   
#> # ... with 14 more rows
#> 
#> 
#> $GPL24205
#> $GPL24205$info
#> # A tibble: 10 x 2
#>   name           description                         
#>   <chr>          <chr>                               
#> 1 ID             Probe Name                          
#> 2 GB_ACC         GenBank or RefSeq accession number  
#> 3 GenbankID      GenBank or RefSeq accession number  
#> 4 GB_RANGE       RefSeq accession.version[start..end]
#> 5 Symbol         Symbol                              
#> 6 ENTREZ_GENE_ID Entrez Gene ID                      
#> # ... with 4 more rows
#> 
#> $GPL24205$sample
#> # A tibble: 20 x 10
#>   ID          GB_ACC  GenbankID GB_RANGE Symbol ENTREZ_GENE_ID Description
#>   <chr>       <chr>   <chr>     <chr>    <chr>  <chr>          <chr>      
#> 1 EPI_ACTB_3… NM_001… ""        ""       <NA>   ""             <NA>       
#> 2 EPI_ACTB_3… NM_001… ""        ""       <NA>   ""             <NA>       
#> 3 EPI_ACTB_3… NM_001… ""        ""       <NA>   ""             <NA>       
#> 4 EPI_ACTB_3… NM_001… ""        ""       <NA>   ""             <NA>       
#> 5 EPI_ACTB_3… NM_001… ""        ""       <NA>   ""             <NA>       
#> 6 EPI_ACTB_3… NM_001… ""        ""       <NA>   ""             <NA>       
#> # ... with 14 more rows, and 3 more variables: ControlType <chr>,
#> #   SEQUENCE <chr>, SPOT_ID <chr>
…
